## Autogenerated by Scribe. DO NOT MODIFY.

name: Endpoints
description: ''
endpoints:
  -
    httpMethods:
      - GET
    uri: api/user
    metadata:
      groupName: Endpoints
      groupDescription: ''
      subgroup: ''
      subgroupDescription: ''
      title: ''
      description: ''
      authenticated: false
      custom: []
    headers:
      Content-Type: application/json
      Accept: application/json
    urlParameters: []
    cleanUrlParameters: []
    queryParameters: []
    cleanQueryParameters: []
    bodyParameters: []
    cleanBodyParameters: []
    fileParameters: []
    responses:
      -
        status: 401
        content: '{"message":"Unauthenticated."}'
        headers:
          cache-control: 'no-cache, private'
          content-type: application/json
          access-control-allow-origin: '*'
        description: null
        custom: []
    responseFields: []
    auth: []
    controller: null
    method: null
    route: null
    custom: []
  -
    httpMethods:
      - GET
    uri: api/books
    metadata:
      groupName: Endpoints
      groupDescription: ''
      subgroup: ''
      subgroupDescription: ''
      title: ''
      description: ''
      authenticated: false
      custom: []
    headers:
      Content-Type: application/json
      Accept: application/json
    urlParameters: []
    cleanUrlParameters: []
    queryParameters: []
    cleanQueryParameters: []
    bodyParameters: []
    cleanBodyParameters: []
    fileParameters: []
    responses:
      -
        status: 200
        content: '{"current_page":1,"data":[{"id":1,"title":"Ipsam hic error neque rerum quas porro.","writer_id":7,"cover_image":"https:\/\/images-na.ssl-images-amazon.com\/images\/I\/51Ga5GuElyL._AC_SX184_.jpg","price":198.93,"tags":["quia","cupiditate","cumque"],"created_at":"2024-05-01T05:31:13.000000Z","updated_at":"2024-05-01T05:31:13.000000Z"},{"id":2,"title":"Sunt esse suscipit rerum voluptatibus aut.","writer_id":6,"cover_image":"https:\/\/images-na.ssl-images-amazon.com\/images\/I\/51Ga5GuElyL._AC_SX184_.jpg","price":183.86,"tags":["sapiente","quia"],"created_at":"2024-05-01T05:31:13.000000Z","updated_at":"2024-05-01T05:31:13.000000Z"},{"id":3,"title":"Aspernatur quo sint et nisi a.","writer_id":10,"cover_image":"https:\/\/images-na.ssl-images-amazon.com\/images\/I\/51Ga5GuElyL._AC_SX184_.jpg","price":157.52,"tags":["cupiditate","quia"],"created_at":"2024-05-01T05:31:13.000000Z","updated_at":"2024-05-01T05:31:13.000000Z"},{"id":4,"title":"Omnis et qui beatae ea quibusdam.","writer_id":3,"cover_image":"https:\/\/images-na.ssl-images-amazon.com\/images\/I\/51Ga5GuElyL._AC_SX184_.jpg","price":129.64,"tags":["voluptas","impedit","quia","sapiente","unde","cumque","voluptas","repellendus","quo"],"created_at":"2024-05-01T05:31:13.000000Z","updated_at":"2024-05-01T05:31:13.000000Z"},{"id":5,"title":"Consequatur quia sequi voluptas omnis velit ut fuga quam.","writer_id":2,"cover_image":"https:\/\/images-na.ssl-images-amazon.com\/images\/I\/51Ga5GuElyL._AC_SX184_.jpg","price":140.54,"tags":["sapiente","quo"],"created_at":"2024-05-01T05:31:13.000000Z","updated_at":"2024-05-01T05:31:13.000000Z"},{"id":6,"title":"Minus dolor vel earum omnis quidem quia omnis.","writer_id":6,"cover_image":"https:\/\/images-na.ssl-images-amazon.com\/images\/I\/51Ga5GuElyL._AC_SX184_.jpg","price":103.71,"tags":["voluptas","repellendus"],"created_at":"2024-05-01T05:31:13.000000Z","updated_at":"2024-05-01T05:31:13.000000Z"},{"id":7,"title":"Impedit harum cupiditate molestiae dolores delectus.","writer_id":8,"cover_image":"https:\/\/images-na.ssl-images-amazon.com\/images\/I\/51Ga5GuElyL._AC_SX184_.jpg","price":140.76,"tags":["sapiente","cupiditate","voluptas","repellendus","quo","unde"],"created_at":"2024-05-01T05:31:13.000000Z","updated_at":"2024-05-01T05:31:13.000000Z"},{"id":8,"title":"Voluptatem quis rerum vitae eius.","writer_id":9,"cover_image":"https:\/\/images-na.ssl-images-amazon.com\/images\/I\/51Ga5GuElyL._AC_SX184_.jpg","price":100.08,"tags":["cupiditate","quo"],"created_at":"2024-05-01T05:31:13.000000Z","updated_at":"2024-05-01T05:31:13.000000Z"},{"id":9,"title":"Occaecati nisi reprehenderit sapiente eum necessitatibus aperiam.","writer_id":4,"cover_image":"https:\/\/images-na.ssl-images-amazon.com\/images\/I\/51Ga5GuElyL._AC_SX184_.jpg","price":161.75,"tags":["cupiditate","sapiente","quia","impedit","quo","unde"],"created_at":"2024-05-01T05:31:13.000000Z","updated_at":"2024-05-01T05:31:13.000000Z"},{"id":10,"title":"Quas corrupti doloremque explicabo deserunt ratione.","writer_id":1,"cover_image":"https:\/\/images-na.ssl-images-amazon.com\/images\/I\/51Ga5GuElyL._AC_SX184_.jpg","price":122.82,"tags":["voluptas","repellendus"],"created_at":"2024-05-01T05:31:13.000000Z","updated_at":"2024-05-01T05:31:13.000000Z"},{"id":11,"title":"Odit enim sit vitae.","writer_id":4,"cover_image":"https:\/\/images-na.ssl-images-amazon.com\/images\/I\/51Ga5GuElyL._AC_SX184_.jpg","price":106.52,"tags":["cupiditate","cumque","quo","impedit","sapiente","voluptas","voluptas","repellendus","quia"],"created_at":"2024-05-01T05:31:13.000000Z","updated_at":"2024-05-01T05:31:13.000000Z"},{"id":12,"title":"Veniam vero et pariatur explicabo quas.","writer_id":10,"cover_image":"https:\/\/images-na.ssl-images-amazon.com\/images\/I\/51Ga5GuElyL._AC_SX184_.jpg","price":131.26,"tags":["impedit","voluptas","quia"],"created_at":"2024-05-01T05:31:13.000000Z","updated_at":"2024-05-01T05:31:13.000000Z"},{"id":13,"title":"Soluta non aspernatur et sed molestiae quaerat.","writer_id":10,"cover_image":"https:\/\/images-na.ssl-images-amazon.com\/images\/I\/51Ga5GuElyL._AC_SX184_.jpg","price":181.57,"tags":["unde","cumque","quia","voluptas","voluptas","impedit"],"created_at":"2024-05-01T05:31:13.000000Z","updated_at":"2024-05-01T05:31:13.000000Z"},{"id":14,"title":"Non tempore est dolores nulla velit.","writer_id":6,"cover_image":"https:\/\/images-na.ssl-images-amazon.com\/images\/I\/51Ga5GuElyL._AC_SX184_.jpg","price":126.78,"tags":["cumque","voluptas","impedit","unde","quia"],"created_at":"2024-05-01T05:31:13.000000Z","updated_at":"2024-05-01T05:31:13.000000Z"},{"id":15,"title":"Eum iusto placeat exercitationem quis natus.","writer_id":9,"cover_image":"https:\/\/images-na.ssl-images-amazon.com\/images\/I\/51Ga5GuElyL._AC_SX184_.jpg","price":153.85,"tags":["unde","repellendus","cupiditate","impedit","sapiente"],"created_at":"2024-05-01T05:31:13.000000Z","updated_at":"2024-05-01T05:31:13.000000Z"}],"first_page_url":"http:\/\/interview-app-1.test\/api\/books?page=1","from":1,"last_page":2,"last_page_url":"http:\/\/interview-app-1.test\/api\/books?page=2","links":[{"url":null,"label":"&laquo; Previous","active":false},{"url":"http:\/\/interview-app-1.test\/api\/books?page=1","label":"1","active":true},{"url":"http:\/\/interview-app-1.test\/api\/books?page=2","label":"2","active":false},{"url":"http:\/\/interview-app-1.test\/api\/books?page=2","label":"Next &raquo;","active":false}],"next_page_url":"http:\/\/interview-app-1.test\/api\/books?page=2","path":"http:\/\/interview-app-1.test\/api\/books","per_page":15,"prev_page_url":null,"to":15,"total":20}'
        headers:
          cache-control: 'no-cache, private'
          content-type: application/json
          access-control-allow-origin: '*'
        description: null
        custom: []
    responseFields: []
    auth: []
    controller: null
    method: null
    route: null
    custom: []
  -
    httpMethods:
      - POST
    uri: api/books
    metadata:
      groupName: Endpoints
      groupDescription: ''
      subgroup: ''
      subgroupDescription: ''
      title: ''
      description: ''
      authenticated: false
      custom: []
    headers:
      Content-Type: application/json
      Accept: application/json
    urlParameters: []
    cleanUrlParameters: []
    queryParameters: []
    cleanQueryParameters: []
    bodyParameters: []
    cleanBodyParameters: []
    fileParameters: []
    responses: []
    responseFields: []
    auth: []
    controller: null
    method: null
    route: null
    custom: []
  -
    httpMethods:
      - GET
    uri: 'api/books/{id}'
    metadata:
      groupName: Endpoints
      groupDescription: ''
      subgroup: ''
      subgroupDescription: ''
      title: ''
      description: ''
      authenticated: false
      custom: []
    headers:
      Content-Type: application/json
      Accept: application/json
    urlParameters:
      id:
        name: id
        description: 'The ID of the book.'
        required: true
        example: 1
        type: integer
        enumValues: []
        exampleWasSpecified: false
        custom: []
    cleanUrlParameters:
      id: 1
    queryParameters: []
    cleanQueryParameters: []
    bodyParameters: []
    cleanBodyParameters: []
    fileParameters: []
    responses:
      -
        status: 200
        content: ''
        headers:
          content-type: 'text/html; charset=UTF-8'
          cache-control: 'no-cache, private'
          access-control-allow-origin: '*'
        description: null
        custom: []
    responseFields: []
    auth: []
    controller: null
    method: null
    route: null
    custom: []
  -
    httpMethods:
      - PUT
      - PATCH
    uri: 'api/books/{id}'
    metadata:
      groupName: Endpoints
      groupDescription: ''
      subgroup: ''
      subgroupDescription: ''
      title: ''
      description: ''
      authenticated: false
      custom: []
    headers:
      Content-Type: application/json
      Accept: application/json
    urlParameters:
      id:
        name: id
        description: 'The ID of the book.'
        required: true
        example: 1
        type: integer
        enumValues: []
        exampleWasSpecified: false
        custom: []
    cleanUrlParameters:
      id: 1
    queryParameters: []
    cleanQueryParameters: []
    bodyParameters: []
    cleanBodyParameters: []
    fileParameters: []
    responses: []
    responseFields: []
    auth: []
    controller: null
    method: null
    route: null
    custom: []
  -
    httpMethods:
      - DELETE
    uri: 'api/books/{id}'
    metadata:
      groupName: Endpoints
      groupDescription: ''
      subgroup: ''
      subgroupDescription: ''
      title: ''
      description: ''
      authenticated: false
      custom: []
    headers:
      Content-Type: application/json
      Accept: application/json
    urlParameters:
      id:
        name: id
        description: 'The ID of the book.'
        required: true
        example: 1
        type: integer
        enumValues: []
        exampleWasSpecified: false
        custom: []
    cleanUrlParameters:
      id: 1
    queryParameters: []
    cleanQueryParameters: []
    bodyParameters: []
    cleanBodyParameters: []
    fileParameters: []
    responses: []
    responseFields: []
    auth: []
    controller: null
    method: null
    route: null
    custom: []
